graph {
    subgraph cluster_0 {
	label="Infrastructure de la vilette";
	"SWITCH_LA_VILETTE" [label="Switch managés"];
	
    }

    subgraph cluster_1 {
	label="table 1";
	"ETHERNET_TABLE_0" [label="Ethernet"];
	SWITCH_LA_VILETTE -- ETHERNET_TABLE_0;
    }

    subgraph cluster_2 {
	label="table 2";
	"ETHERNET_TABLE_1" [label="Ethernet"];
	SWITCH_LA_VILETTE -- ETHERNET_TABLE_1;
    }

    subgraph cluster_3 {
	label="table 3";
	"ETHERNET_TABLE_2" [label="Ethernet"];
	SWITCH_LA_VILETTE -- ETHERNET_TABLE_2;
    }
    subgraph cluster_4 {
	label="table 4";
	"ETHERNET_TABLE_3" [label="Ethernet"];
	SWITCH_LA_VILETTE -- ETHERNET_TABLE_3;
    }
    subgraph cluster_5 {
	label="table 5";
	"ETHERNET_TABLE_4" [label="Ethernet"];
	SWITCH_LA_VILETTE -- ETHERNET_TABLE_4;
    }

    subgraph cluster_6 {
	label="WNDR3800";
	"WNDR3800_SWITCH" [label="switch"];
    }    

    subgraph cluster_7 {
	label="Lime1 A20";
	"LIME1_A20_INTERNAL_ETHERNET" [label="Ethernet"];
	"LIME1_A20_USB_HOST_1" [label="USB host"];
	"LIME1_A20_USB_ETHERNET" [label="USB Ethernet adapter"];
	"ETHERNET_TABLE_0" -- "LIME1_A20_USB_ETHERNET" [label="172.17.192.2"];
	LIME1_A20_USB_HOST_1 -- LIME1_A20_USB_ETHERNET;
	WNDR3800_SWITCH -- LIME1_A20_INTERNAL_ETHERNET [label="192.168.42.1"]
    }


    subgraph cluster_8 {
	label="Raspberry PI";
	"RPI_INTERNAL_ETHERNET" [label="Ethernet"];
	"ETHERNET_TABLE_0" -- "RPI_INTERNAL_ETHERNET"  [label="172.17.192.1"];
    }
}
